{
    "users": [
        {
            "id": "user1",
            "first_name": "Andrew",
            "last_name": "Delarue"
        },
        {
            "id": "user2",
            "first_name": "Szymon",
            "last_name": "Jefferson"
        },
        {
            "id": "user3",
            "first_name": "Frankie",
            "last_name": "Conrad"
        },
        {
            "id": "user4",
            "first_name": "Jamie-Lee",
            "last_name": "Anthony"
        },
        {
            "id": "user5",
            "first_name": "Kaeden",
            "last_name": "Rhodes"
        },
        {
            "id": "user6",
            "first_name": "Aleyna",
            "last_name": "Gross"
        }
    ],
    "tasks": [
        {
            "id": "task1",
            "name": "Cleaning after every reservation",
            "assigneeId": "user5",
            "startsAt": "1599326394684",
            "dueAt": "1599536394684",
            "description": "Lorem ipsum dolor sit amet, consectetur adipisicing elit. Accusamus autem dolor pariatur. At, perferendis, saepe."
        },
        {
            "id": "task2",
            "name": "Supervise repairs",
            "assigneeId": "user3",
            "startsAt": "1599426374684",
            "dueAt": "1599646384684",
            "description": "Alias atque cum eligendi exercitationem iusto officiis placeat ratione rem? Eaque possimus quam vitae voluptatum."
        },
        {
            "id": "task3",
            "name": "Security patrol",
            "assigneeId": "user2",
            "startsAt": "1599326394684",
            "dueAt": "1599756394684",
            "description": "Accusantium, adipisci consectetur, culpa cum cupiditate doloribus et iure laudantium maxime minus quis rerum tenetur."
        },
        {
            "id": "a1J_c",
            "name": "foo bar",
            "assigneeId": "user4",
            "startsAt": "1602795600000",
            "dueAt": "1604005200000",
            "description": "description"
        }
    ]
}
